{"results":[{"vote_count":2302,"id":299536,"video":false,"vote_average":8.7,"title":"Avengers: Infinity War","popularity":674.61706,"poster_path":"\/7WsyChQLEftFiDOVTGkv3hFpyyt.jpg","original_language":"en","original_title":"Avengers: Infinity War","genre_ids":[12,878,14,28],"backdrop_path":"\/bOGkgRGdhrBYJSLpXaxhXVstddV.jpg","adult":false,"overview":"As the Avengers and their allies have continued to protect the world from threats too large for any one hero to handle, a new danger has emerged from the cosmic shadows: Thanos. A despot of intergalactic infamy, his goal is to collect all six Infinity Stones, artifacts of unimaginable power, and use them to inflict his twisted will on all of reality. Everything the Avengers have fought for has led up to this moment - the fate of Earth and existence itself has never been more uncertain.","release_date":"2018-04-25"},{"vote_count":398,"id":427641,"video":false,"vote_average":5.9,"title":"Rampage","popularity":174.66865,"poster_path":"\/30oXQKwibh0uANGMs0Sytw3uN22.jpg","original_language":"en","original_title":"Rampage","genre_ids":[28,12,878],"backdrop_path":"\/wrqUiMXttHE4UBFMhLHlN601MZh.jpg","adult":false,"overview":"Primatologist Davis Okoye shares an unshakable bond with George, the extraordinarily intelligent, silverback gorilla who has been in his care since birth.  But a rogue genetic experiment gone awry mutates this gentle ape into a raging creature of enormous size.  To make matters worse, it’s soon discovered there are other similarly altered animals.  As these newly created alpha predators tear across North America, destroying everything in their path, Okoye teams with a discredited genetic engineer to secure an antidote, fighting his way through an ever-changing battlefield, not only to halt a global catastrophe but to save the fearsome creature that was once his friend.","release_date":"2018-04-12"},{"vote_count":858,"id":447332,"video":false,"vote_average":7.4,"title":"A Quiet Place","popularity":92.593714,"poster_path":"\/nAU74GmpUk7t5iklEp3bufwDq4n.jpg","original_language":"en","original_title":"A Quiet Place","genre_ids":[18,27,53,878],"backdrop_path":"\/roYyPiQDQKmIKUEhO912693tSja.jpg","adult":false,"overview":"A family is forced to live in silence while hiding from creatures that hunt by sound.","release_date":"2018-04-05"},{"vote_count":1719,"id":333339,"video":false,"vote_average":7.9,"title":"Ready Player One","popularity":59.075909,"poster_path":"\/pU1ULUq8D3iRxl1fdX2lZIzdHuI.jpg","original_language":"en","original_title":"Ready Player One","genre_ids":[12,878,28],"backdrop_path":"\/q7fXcrDPJcf6t3rzutaNwTzuKP1.jpg","adult":false,"overview":"When the creator of a popular video game system dies, a virtual contest is created to compete for his fortune.","release_date":"2018-03-28"},{"vote_count":3939,"id":353486,"video":false,"vote_average":6.6,"title":"Jumanji: Welcome to the Jungle","popularity":48.80902,"poster_path":"\/bXrZ5iHBEjH7WMidbUDQ0U2xbmr.jpg","original_language":"en","original_title":"Jumanji: Welcome to the Jungle","genre_ids":[28,12,35,10751],"backdrop_path":"\/rz3TAyd5kmiJmozp3GUbYeB5Kep.jpg","adult":false,"overview":"The tables are turned as four teenagers are sucked into Jumanji's world - pitted against rhinos, black mambas and an endless variety of jungle traps and puzzles. To survive, they'll play as characters from the game.","release_date":"2017-12-09"},{"vote_count":407,"id":449443,"video":false,"vote_average":6.4,"title":"Den of Thieves","popularity":46.449115,"poster_path":"\/AfybH6GbGFw1F9bcETe2yu25mIE.jpg","original_language":"en","original_title":"Den of Thieves","genre_ids":[28,53,80],"backdrop_path":"\/s3FDBLH4qc1IcjexB05Qvbn3wxO.jpg","adult":false,"overview":"While planning a bank heist, a thief gets trapped between two sets of criminals.","release_date":"2018-01-18"},{"vote_count":563,"id":268896,"video":false,"vote_average":5.9,"title":"Pacific Rim: Uprising","popularity":40.495549,"poster_path":"\/v5HlmJK9bdeHxN2QhaFP1ivjX3U.jpg","original_language":"en","original_title":"Pacific Rim: Uprising","genre_ids":[28,14,878,12],"backdrop_path":"\/mo5EJsExrQCroqPDwUwp6jeq0xS.jpg","adult":false,"overview":"It has been ten years since The Battle of the Breach and the oceans are still, but restless. Vindicated by the victory at the Breach, the Jaeger program has evolved into the most powerful global defense force in human history. The PPDC now calls upon the best and brightest to rise up and become the next generation of heroes when the Kaiju threat returns.","release_date":"2018-03-21"},{"vote_count":179,"id":381719,"video":false,"vote_average":6.4,"title":"Peter Rabbit","popularity":40.352818,"poster_path":"\/2yjSvEDuM3rLDng40erLsWkQRfn.jpg","original_language":"en","original_title":"Peter Rabbit","genre_ids":[16,12,10751],"backdrop_path":"\/e9dVo1OXZL6sWinc9uIS0Foo4QG.jpg","adult":false,"overview":"Peter Rabbit's feud with Mr. McGregor escalates to greater heights than ever before as they rival for the affections of the warm-hearted animal lover who lives next door.","release_date":"2018-02-07"},{"vote_count":995,"id":399035,"video":false,"vote_average":5.8,"title":"The Commuter","popularity":38.638122,"poster_path":"\/rDeGK6FIUfVcXmuBdEORPAGPMNg.jpg","original_language":"en","original_title":"The Commuter","genre_ids":[28,80,18,9648,53],"backdrop_path":"\/clmYuR1t4TtKcakIOvYIPrjyxDc.jpg","adult":false,"overview":"A businessman on his daily commute home gets unwittingly caught up in a criminal conspiracy that threatens not only his life but the lives of those around him.","release_date":"2018-01-11"},{"vote_count":1650,"id":300668,"video":false,"vote_average":6.3,"title":"Annihilation","popularity":37.690188,"poster_path":"\/d3qcpfNwbAMCNqWDHzPQsUYiUgS.jpg","original_language":"en","original_title":"Annihilation","genre_ids":[9648,878,18],"backdrop_path":"\/5zfVNTrkhMu673zma6qhFzG01ig.jpg","adult":false,"overview":"A biologist signs up for a dangerous, secret expedition into a mysterious zone where the laws of nature don't apply.","release_date":"2018-02-22"},{"vote_count":158,"id":468202,"video":false,"vote_average":6.6,"title":"The Girl in the Fog","popularity":37.512206,"poster_path":"\/eWINXglQ9JVxUuzouYK7arm9YT1.jpg","original_language":"it","original_title":"La ragazza nella nebbia","genre_ids":[80,53],"backdrop_path":"\/1r9UN54aVFTty9AlLwPkW6ZHVFl.jpg","adult":false,"overview":"Based on the bestselling novel by Donato Carrisi, THE GIRL IN THE FOG is a gripping and chilling thriller that brings us to a hazy mountain village where enigmatic Detective Vogel is investigating on the sudden disappearance of fifteen-year-old Anna Lou. But with the case at the heart of a media storm, the fine line between the police and criminals begins to blur and soon everyone becomes a suspect.","release_date":"2017-10-26"},{"vote_count":215,"id":416234,"video":false,"vote_average":6,"title":"Winchester","popularity":34.813245,"poster_path":"\/tHDtskokZeO9B3JBdR1dSH0uqad.jpg","original_language":"en","original_title":"Winchester","genre_ids":[14,9648,53],"backdrop_path":"\/d4wnMDSrQonB9iArMzd90WqaoJ4.jpg","adult":false,"overview":"Firearm heiress Sarah Winchester is convinced that she is haunted by the souls killed at the hands of the Winchester repeating rifle. After the sudden deaths of her husband and child, she throws herself into the construction of an enormous mansion designed to keep the evil spirits at bay. But when skeptical a San Francisco psychiatrist is dispatched to the estate to evaluate her state of mind, he discovers that her obsession may not be so insane after all.","release_date":"2018-02-02"},{"vote_count":74,"id":437557,"video":false,"vote_average":6.3,"title":"Blockers","popularity":34.345866,"poster_path":"\/cx0LpfM6Drla8uzFfMT09uqKPRu.jpg","original_language":"en","original_title":"Blockers","genre_ids":[35],"backdrop_path":"\/bStCGzVYFrKxtOyThKkqgI8gjgE.jpg","adult":false,"overview":"When three parents discover their daughters’ pact to lose their virginity at prom, they launch a covert one-night operation to stop the teens from sealing the deal.","release_date":"2018-03-30"},{"vote_count":52,"id":460019,"video":false,"vote_average":5.9,"title":"Truth or Dare","popularity":33.222159,"poster_path":"\/zbvziwnZa91AJD78Si0hUb5JP5X.jpg","original_language":"en","original_title":"Truth or Dare","genre_ids":[53,27],"backdrop_path":"\/eQ5xu2pQ5Kergubto5PbbUzey28.jpg","adult":false,"overview":"A harmless game of “Truth or Dare” among friends turns deadly when someone—or something—begins to punish those who tell a lie—or refuse the dare.","release_date":"2018-04-12"},{"vote_count":883,"id":401981,"video":false,"vote_average":6.5,"title":"Red Sparrow","popularity":32.966766,"poster_path":"\/fyufzd2S1lLxMxkTHTnmr6VJfe5.jpg","original_language":"en","original_title":"Red Sparrow","genre_ids":[9648,53],"backdrop_path":"\/uBw0QSBWamSWXWl5ttwhxq4h09s.jpg","adult":false,"overview":"Prima ballerina Dominika Egorova faces a bleak and uncertain future after she suffers an injury that ends her career. She soon turns to Sparrow School, a secret intelligence service that trains exceptional young people to use their minds and bodies as weapons. Egorova emerges as the most dangerous Sparrow after completing the sadistic training process. As she comes to terms with her new abilities, Dominika meets a CIA agent who tries to convince her that he is the only person she can trust.","release_date":"2018-03-01"},{"vote_count":471,"id":429351,"video":false,"vote_average":4.9,"title":"12 Strong","popularity":32.760393,"poster_path":"\/j18021qCeRi3yUBtqd2UFj1c0RQ.jpg","original_language":"en","original_title":"12 Strong","genre_ids":[10752,18,36],"backdrop_path":"\/wacEk5YSNE41QeKseilyytksXmv.jpg","adult":false,"overview":"A team of CIA agents and special forces head into Afghanistan in the aftermath of the September 11th attacks in an attempt to dismantle the Taliban.","release_date":"2018-01-18"},{"vote_count":230,"id":476926,"video":false,"vote_average":5.5,"title":"The Titan","popularity":31.228934,"poster_path":"\/lvFHnfIQPrMdUNy5i0t0fdTwhJW.jpg","original_language":"en","original_title":"The Titan","genre_ids":[878],"backdrop_path":"\/lvI088LImIcFNwLcniGyKMRbAK7.jpg","adult":false,"overview":"On a bleak future Earth, a soldier endures a radical genetic transformation to save humanity. But his wife fears he's becoming more creature than man.","release_date":"2018-03-30"},{"vote_count":2,"id":454619,"video":false,"vote_average":0,"title":"Overboard","popularity":28.400763,"poster_path":"\/gaHknuun1VPPugkTsSfB8PejKVg.jpg","original_language":"en","original_title":"Overboard","genre_ids":[10749,35],"backdrop_path":"\/yCfXPtYz1CtPw4bbjAZ8xwXenNS.jpg","adult":false,"overview":"A spoiled, wealthy yacht owner is thrown overboard and becomes the target of revenge from his mistreated employee. A remake of the 1987 comedy.","release_date":"2018-05-03"},{"vote_count":1235,"id":446354,"video":false,"vote_average":7,"title":"The Post","popularity":27.777284,"poster_path":"\/h4XG3g6uMMPIBPjAoQhC2QIMdkl.jpg","original_language":"en","original_title":"The Post","genre_ids":[18,36],"backdrop_path":"\/8sb4aBST28vN3rBz704XJczS0Ld.jpg","adult":false,"overview":"A cover-up that spanned four U.S. Presidents pushed the country's first female newspaper publisher and a hard-driving editor to join an unprecedented battle between journalist and government. Inspired by true events.","release_date":"2018-01-11"},{"vote_count":315,"id":445571,"video":false,"vote_average":7.3,"title":"Game Night","popularity":27.068389,"poster_path":"\/i8pjBv8LGN0SiAYGFQGld5HkR6Y.jpg","original_language":"en","original_title":"Game Night","genre_ids":[9648,35,80,53],"backdrop_path":"\/jknYekTVH1n7doNVj5wiCMKhx7u.jpg","adult":false,"overview":"Max and Annie's weekly game night gets kicked up a notch when Max's brother Brooks arranges a murder mystery party -- complete with fake thugs and federal agents. So when Brooks gets kidnapped, it's all supposed to be part of the game. As the competitors set out to solve the case, they start to learn that neither the game nor Brooks are what they seem to be. The friends soon find themselves in over their heads as each twist leads to another unexpected turn over the course of one chaotic night.","release_date":"2018-02-22"}],"page":1,"total_results":892,"dates":{"maximum":"2018-05-10","minimum":"2018-03-23"},"total_pages":45}